^C:\DEV\NIHILRELOADED\BIN-INT\DEBUG\X64\BITMAP.OBJ|C:\DEV\NIHILRELOADED\BIN-INT\DEBUG\X64\GAME.OBJ|C:\DEV\NIHILRELOADED\BIN-INT\DEBUG\X64\PLAYERINPUT.OBJ|C:\DEV\NIHILRELOADED\BIN-INT\DEBUG\X64\PROGRAM.OBJ|C:\DEV\NIHILRELOADED\BIN-INT\DEBUG\X64\RECTANGLE.OBJ|C:\DEV\NIHILRELOADED\BIN-INT\DEBUG\X64\RENDERER.OBJ|C:\DEV\NIHILRELOADED\BIN-INT\DEBUG\X64\RESOURCE.OBJ|C:\DEV\NIHILRELOADED\BIN-INT\DEBUG\X64\SHADER.OBJ|C:\DEV\NIHILRELOADED\BIN-INT\DEBUG\X64\SPRITE.OBJ|C:\DEV\NIHILRELOADED\BIN-INT\DEBUG\X64\SPRITEBATCH.OBJ|C:\DEV\NIHILRELOADED\BIN-INT\DEBUG\X64\STB_IMAGE.OBJ|C:\DEV\NIHILRELOADED\BIN-INT\DEBUG\X64\TEXTURE.OBJ|C:\DEV\NIHILRELOADED\BIN-INT\DEBUG\X64\TILEMAP.OBJ|C:\DEV\NIHILRELOADED\BIN-INT\DEBUG\X64\WINDOW.OBJ
C:\DEV\NIHILRELOADED\VENDOR\LIB\GLFW3.LIB
C:\DEV\NIHILRELOADED\VENDOR\LIB\GLEW32.LIB
C:\PROGRAM FILES (X86)\WINDOWS KITS\10\LIB\10.0.18362.0\UM\X64\OPENGL32.LIB
C:\PROGRAM FILES (X86)\WINDOWS KITS\10\LIB\10.0.18362.0\UM\X64\KERNEL32.LIB
C:\PROGRAM FILES (X86)\WINDOWS KITS\10\LIB\10.0.18362.0\UM\X64\USER32.LIB
C:\PROGRAM FILES (X86)\WINDOWS KITS\10\LIB\10.0.18362.0\UM\X64\GDI32.LIB
C:\PROGRAM FILES (X86)\WINDOWS KITS\10\LIB\10.0.18362.0\UM\X64\WINSPOOL.LIB
C:\PROGRAM FILES (X86)\WINDOWS KITS\10\LIB\10.0.18362.0\UM\X64\COMDLG32.LIB
C:\PROGRAM FILES (X86)\WINDOWS KITS\10\LIB\10.0.18362.0\UM\X64\ADVAPI32.LIB
C:\PROGRAM FILES (X86)\WINDOWS KITS\10\LIB\10.0.18362.0\UM\X64\SHELL32.LIB
C:\PROGRAM FILES (X86)\WINDOWS KITS\10\LIB\10.0.18362.0\UM\X64\OLE32.LIB
C:\PROGRAM FILES (X86)\WINDOWS KITS\10\LIB\10.0.18362.0\UM\X64\OLEAUT32.LIB
C:\PROGRAM FILES (X86)\WINDOWS KITS\10\LIB\10.0.18362.0\UM\X64\UUID.LIB
C:\PROGRAM FILES (X86)\WINDOWS KITS\10\LIB\10.0.18362.0\UM\X64\ODBC32.LIB
C:\PROGRAM FILES (X86)\WINDOWS KITS\10\LIB\10.0.18362.0\UM\X64\ODBCCP32.LIB
C:\DEV\NIHILRELOADED\BIN-INT\DEBUG\X64\GAME.OBJ
C:\DEV\NIHILRELOADED\BIN-INT\DEBUG\X64\BITMAP.OBJ
C:\DEV\NIHILRELOADED\BIN-INT\DEBUG\X64\RENDERER.OBJ
C:\DEV\NIHILRELOADED\BIN-INT\DEBUG\X64\SHADER.OBJ
C:\DEV\NIHILRELOADED\BIN-INT\DEBUG\X64\SPRITE.OBJ
C:\DEV\NIHILRELOADED\BIN-INT\DEBUG\X64\SPRITEBATCH.OBJ
C:\DEV\NIHILRELOADED\BIN-INT\DEBUG\X64\STB_IMAGE.OBJ
C:\DEV\NIHILRELOADED\BIN-INT\DEBUG\X64\TEXTURE.OBJ
C:\DEV\NIHILRELOADED\BIN-INT\DEBUG\X64\WINDOW.OBJ
C:\DEV\NIHILRELOADED\BIN-INT\DEBUG\X64\PLAYERINPUT.OBJ
C:\DEV\NIHILRELOADED\BIN-INT\DEBUG\X64\PROGRAM.OBJ
C:\DEV\NIHILRELOADED\BIN-INT\DEBUG\X64\RECTANGLE.OBJ
C:\DEV\NIHILRELOADED\BIN-INT\DEBUG\X64\RESOURCE.OBJ
C:\DEV\NIHILRELOADED\BIN-INT\DEBUG\X64\TILEMAP.OBJ
C:\WINDOWS\SYSTEM32\TZRES.DLL
C:\WINDOWS\GLOBALIZATION\SORTING\SORTDEFAULT.NLS
C:\PROGRAM FILES (X86)\MICROSOFT VISUAL STUDIO\2017\COMMUNITY\VC\TOOLS\MSVC\14.16.27023\LIB\X64\MSVCPRTD.LIB
C:\PROGRAM FILES (X86)\MICROSOFT VISUAL STUDIO\2017\COMMUNITY\VC\TOOLS\MSVC\14.16.27023\LIB\X64\MSVCRTD.LIB
C:\PROGRAM FILES (X86)\MICROSOFT VISUAL STUDIO\2017\COMMUNITY\VC\TOOLS\MSVC\14.16.27023\LIB\X64\OLDNAMES.LIB
C:\PROGRAM FILES (X86)\MICROSOFT VISUAL STUDIO\2017\COMMUNITY\VC\TOOLS\MSVC\14.16.27023\LIB\X64\MSVCRT.LIB
C:\PROGRAM FILES (X86)\MICROSOFT VISUAL STUDIO\2017\COMMUNITY\VC\TOOLS\MSVC\14.16.27023\LIB\X64\VCRUNTIMED.LIB
C:\PROGRAM FILES (X86)\WINDOWS KITS\10\LIB\10.0.18362.0\UCRT\X64\UCRTD.LIB
C:\PROGRAM FILES (X86)\MICROSOFT VISUAL STUDIO\2017\COMMUNITY\VC\TOOLS\MSVC\14.16.27023\BIN\HOSTX86\X86\MSPDBSRV.EXE
